^C:\USERS\CRISTIAN\SOURCE\REPOS\GESTURERECOGNITIONWALABOT\GESTURERECOGNITIONWALABOT\GESTURERECOGNITIONWALABOT.CPP
C:\USERS\CRISTIAN\SOURCE\REPOS\GESTURERECOGNITIONWALABOT\GESTURERECOGNITIONWALABOT\DEBUG\VC141.PDB
C:\USERS\CRISTIAN\SOURCE\REPOS\GESTURERECOGNITIONWALABOT\GESTURERECOGNITIONWALABOT\DEBUG\VC141.IDB
C:\USERS\CRISTIAN\SOURCE\REPOS\GESTURERECOGNITIONWALABOT\GESTURERECOGNITIONWALABOT\DEBUG\GESTURERECOGNITIONWALABOT.OBJ
