^C:\USERS\CRISTIAN\SOURCE\REPOS\GESTURERECOGNITIONWALABOT\GESTURERECOGNITIONWALABOT\GESTURERECOGNITIONWALABOT.CPP
C:\USERS\CRISTIAN\SOURCE\REPOS\GESTURERECOGNITIONWALABOT\GESTURERECOGNITIONWALABOT\RELEASE\VC141.PDB
C:\USERS\CRISTIAN\SOURCE\REPOS\GESTURERECOGNITIONWALABOT\GESTURERECOGNITIONWALABOT\RELEASE\GESTURERECOGNITIONWALABOT.OBJ
